…
# References




To load all the packages you can use `library(bbousuite)` or each package can be loaded individually such as `library(bboudata)`.

```r
set.seed(101)
library(bbousuite)
print(bboudata::bbousurv_c, n = 5)
```

```r
# A tibble: 122 × 6
  PopulationName  Year Month StartTotal MortalitiesCertain MortalitiesUncertain
  <chr>          <int> <int>      <int>              <int>                <int>
1 C               2003     3          0                  0                    0
2 C               2003     4         10                  2                    0
3 C               2003     5          5                  0                    0
4 C               2003     6          5                  1                    0
5 C               2003     7          4                  0                    0
# ℹ 117 more rows
# ℹ Use `print(n = ...)` to see more rows
```
…
